…
dado <- bind_rows(dado_2017, dado_2018, dado_2019, dado_2020, dado_2021)


# print(dado_2017)
# print(dado_2018)
# print(dado_2019)
# print(dado_2020)
# print(dado_2021)

print(dado)
```

    ## # A tibble: 1,022,572 × 74
    ##    `Carga Horaria` `Carga Horaria Minima` `Co Ciclo Matricula` `Código de Matr…`
    ##              <dbl>                  <dbl>                <dbl>             <dbl>
    ##  1            3750                   1200              1943726          61383527
    ##  2            3750                   1200              1943726          61383529
    ##  3            3750                   1200              1943726          61383491
    ##  4            3750                   1200              1943726          61383495
    ##  5            3750                   1200              1943726          61383515
    ##  6            3750                   1200              1943726          61383503
    ##  7            3750                   1200              1943726          61383473
    ##  8            3750                   1200              1943726          61383519
    ##  9            3500                   1200              2151261          72127473
    ## 10            3500                   1200              2151261          72127389
    ## # … with 1,022,562 more rows, and 70 more variables: `Cor / Raça` <chr>,
    ## #   `Dt Data Fim Previsto` <chr>, `Dt Data Inicio` <chr>,
    ## #   `Dt Ocorrencia Matricula` <chr>, `Eixo Tecnologico` <chr>,
    ## #   `Fator Esforco Curso` <dbl>, `Mes De Ocorrencia` <chr>,
    ## #   `Modalidade Ensino` <chr>, `Nome Curso` <chr>,
    ## #   `Fonte de financiamento` <chr>, `Renda Familiar` <chr>, Instituição <chr>,
    ## #   Sexo <chr>, `Situação de Matrícula` <chr>, `Sub Eixo Tecnologico` <chr>, …
…
